Yelloweye Commercial Catch
…
Checking the difference of catches reported by PacFIN vs OR state in 2018 due to discrepancy above

Result of above leads us to use the OR state data to be more convervative even though it’s minimal on the grand scheme of things.

Final Catch

Sample size tables

# A tibble: 9,241 × 3
# Groups:   LANDING_YEAR [44]
   LANDING_YEAR VESSEL_ID total_count
          <int>     <int>       <int>
 1         1981  21217582           1
 2         1981  21217603           2
 3         1981  21217639           2
 4         1981  21217658           2
 5         1981  21217733           2
 6         1981  21217812           1
 7         1981  21217852           1
 8         1981  21217872           3
 9         1981  21217896           3
10         1981  21217936           1
# ℹ 9,231 more rows

# A tibble: 2,546 × 2
   VESSEL_ID total_count
       <int>       <int>
 1  21216900           2
 2  21216926           2
 3  21216939           1
 4  21217049           1
 5  21217073           2
 6  21217108           1
 7  21217117           3
 8  21217129           3
 9  21217145           1
10  21217338           1
# ℹ 2,536 more rows
…
